[
  {
    "id": "1",
    "title": "上市公司",
    "children": [
    ]
  },
  {
    "id": "2",
    "title": "其它机构及个人",
    "children": [
      {
        "id": "50",
        "title": "监管机构"
      },
      {
        "id": "51",
        "title": "研究机构"
      },
      {
        "id": "52",
        "title": "个人"
      },
      {
        "id": "53",
        "title": "其它"
      }
    ]
  },
  {
    "id": "3",
    "title": "非上市公司",
    "children": [
      {
        "id": "100",
        "title": "新三板"
      },
      {
        "id": "101",
        "title": "拟上市公司"
      },
      {
        "id": "102",
        "title": "会计师事务所"
      },
      {
        "id": "103",
        "title": "证券公司"
      },
      {
        "id": "104",
        "title": "律师事务所"
      },
      {
        "id": "105",
        "title": "其他"
      }
    ]
  }
]
